{
  "$schema": "../../../node_modules/ng-packagr/ng-package.schema.json",
  "dest": "../../../dist/libs/segments/private-other-very-aux-deep-route-aux",
  "lib": {
    "entryFile": "src/index.ts"
  }
}
